module gitlab.com/SGT911/passwd/backend

go 1.19

require (
	github.com/genjidb/genji v0.15.1
	github.com/go-chi/chi/v5 v5.0.8
	github.com/go-chi/cors v1.2.1
	github.com/go-chi/jwtauth v1.2.0
	github.com/google/uuid v1.1.2
)

require (
	github.com/DataDog/zstd v1.4.5 // indirect
	github.com/HdrHistogram/hdrhistogram-go v1.1.2 // indirect
	github.com/buger/jsonparser v1.1.1 // indirect
	github.com/cespare/xxhash/v2 v2.1.1 // indirect
	github.com/cockroachdb/errors v1.9.0 // indirect
	github.com/cockroachdb/logtags v0.0.0-20211118104740-dabe8e521a4f // indirect
	github.com/cockroachdb/pebble v0.0.0-20220708173837-d3484a60444e // indirect
	github.com/cockroachdb/redact v1.1.3 // indirect
	github.com/getsentry/sentry-go v0.12.0 // indirect
	github.com/goccy/go-json v0.3.5 // indirect
	github.com/gogo/protobuf v1.3.2 // indirect
	github.com/golang/snappy v0.0.3 // indirect
	github.com/klauspost/compress v1.11.7 // indirect
	github.com/kr/pretty v0.3.0 // indirect
	github.com/kr/text v0.2.0 // indirect
	github.com/lestrrat-go/backoff/v2 v2.0.7 // indirect
	github.com/lestrrat-go/httpcc v1.0.0 // indirect
	github.com/lestrrat-go/iter v1.0.0 // indirect
	github.com/lestrrat-go/jwx v1.1.0 // indirect
	github.com/lestrrat-go/option v1.0.0 // indirect
	github.com/pkg/errors v0.9.1 // indirect
	github.com/rogpeppe/go-internal v1.8.1 // indirect
	golang.org/x/crypto v0.0.0-20210921155107-089bfa567519 // indirect
	golang.org/x/exp v0.0.0-20200513190911-00229845015e // indirect
	golang.org/x/sys v0.3.0 // indirect
)
